{
	"variables": [],
	"info": {
		"name": "Donor Svc",
		"_postman_id": "631e113d-bf30-9bf5-ad14-51bcbab4841a",
		"description": "Calling Donor Svc main signatures which is been used from MWV",
		"schema": "https://schema.getpostman.com/json/collection/v2.0.0/collection.json"
	},
	"item": [
		{
			"name": "Crm centric",
			"description": "Call are connected to CRM",
			"item": [
				{
					"name": "get login profile",
					"event": [
						{
							"listen": "test",
							"script": {
								"type": "text/javascript",
								"exec": [
									"tests[\"Status code is 200\"] = responseCode.code === 200;",
									"var contentTypeHeaderExists = responseHeaders.hasOwnProperty(\"Content-Type\");",
									" ",
									"tests[\"Has Content-Type\"] = contentTypeHeaderExists;",
									" ",
									"if (contentTypeHeaderExists) {",
									"    tests[\"Content-Type is application/json\"] = ",
									"      responseHeaders[\"Content-Type\"].has(\"application/json\");",
									"}",
									"",
									"var jsonData = JSON.parse(responseBody);",
									"tests[\"Profile exists\"] = jsonData.loginId;"
								]
							}
						}
					],
					"request": {
						"url": "{{url}}profile/{{loginId}}",
						"method": "GET",
						"header": [],
						"body": {},
						"description": ""
					},
					"response": []
				},
				{
					"name": "get donor info",
					"event": [
						{
							"listen": "test",
							"script": {
								"type": "text/javascript",
								"exec": [
									"tests[\"Status code is 200\"] = responseCode.code === 200;",
									"var contentTypeHeaderExists = responseHeaders.hasOwnProperty(\"Content-Type\");",
									" ",
									"tests[\"Has Content-Type\"] = contentTypeHeaderExists;",
									" ",
									"if (contentTypeHeaderExists) {",
									"    tests[\"Content-Type is application/json\"] = ",
									"      responseHeaders[\"Content-Type\"].has(\"application/json\");",
									"}",
									"",
									"var jsonData = JSON.parse(responseBody);",
									"tests[\"Donor exists\"] = jsonData.id;"
								]
							}
						}
					],
					"request": {
						"url": "{{url}}/profile/{{loginId}}/donor",
						"method": "GET",
						"header": [],
						"body": {},
						"description": ""
					},
					"response": []
				},
				{
					"name": "get donor info for encrypted donor id",
					"event": [
						{
							"listen": "test",
							"script": {
								"type": "text/javascript",
								"exec": [
									"tests[\"Status code is 200\"] = responseCode.code === 200;",
									"var contentTypeHeaderExists = responseHeaders.hasOwnProperty(\"Content-Type\");",
									" ",
									"tests[\"Has Content-Type\"] = contentTypeHeaderExists;",
									" ",
									"if (contentTypeHeaderExists) {",
									"    tests[\"Content-Type is application/json\"] = ",
									"      responseHeaders[\"Content-Type\"].has(\"application/json\");",
									"}",
									"",
									"var jsonData = JSON.parse(responseBody);",
									"tests[\"Donor exists\"] = jsonData.id;"
								]
							}
						}
					],
					"request": {
						"url": "{{url}}donorinfo?donorId={{encrypedDonorId}}",
						"method": "GET",
						"header": [],
						"body": {},
						"description": ""
					},
					"response": []
				},
				{
					"name": "get profile by email address",
					"event": [
						{
							"listen": "test",
							"script": {
								"type": "text/javascript",
								"exec": [
									"tests[\"Status code is 200\"] = responseCode.code === 200;",
									"var contentTypeHeaderExists = responseHeaders.hasOwnProperty(\"Content-Type\");",
									" ",
									"tests[\"Has Content-Type\"] = contentTypeHeaderExists;",
									" ",
									"if (contentTypeHeaderExists) {",
									"    tests[\"Content-Type is application/json\"] = ",
									"      responseHeaders[\"Content-Type\"].has(\"application/json\");",
									"}",
									"",
									"var jsonData = JSON.parse(responseBody);",
									"tests[\"Profile exists\"] = jsonData.loginId;"
								]
							}
						}
					],
					"request": {
						"url": "{{url}}profile/email?email={{email}}",
						"method": "GET",
						"header": [],
						"body": {},
						"description": ""
					},
					"response": []
				},
				{
					"name": "get profiles by search param",
					"event": [
						{
							"listen": "test",
							"script": {
								"type": "text/javascript",
								"exec": [
									"tests[\"Status code is 200\"] = responseCode.code === 200;",
									"var contentTypeHeaderExists = responseHeaders.hasOwnProperty(\"Content-Type\");",
									" ",
									"tests[\"Has Content-Type\"] = contentTypeHeaderExists;",
									" ",
									"if (contentTypeHeaderExists) {",
									"    tests[\"Content-Type is application/json\"] = ",
									"      responseHeaders[\"Content-Type\"].has(\"application/json\");",
									"}",
									"",
									"var jsonData = JSON.parse(responseBody);",
									"tests[\"Profiles found\"] = jsonData.length>0;"
								]
							}
						}
					],
					"request": {
						"url": "{{url}}/profiles?search={{search}}",
						"method": "GET",
						"header": [],
						"body": {},
						"description": ""
					},
					"response": []
				},
				{
					"name": "get profile's donation history",
					"event": [
						{
							"listen": "test",
							"script": {
								"type": "text/javascript",
								"exec": [
									"tests[\"Status code is 200\"] = responseCode.code === 200;",
									"var contentTypeHeaderExists = responseHeaders.hasOwnProperty(\"Content-Type\");",
									" ",
									"tests[\"Has Content-Type\"] = contentTypeHeaderExists;",
									" ",
									"if (contentTypeHeaderExists) {",
									"    tests[\"Content-Type is application/json\"] = ",
									"      responseHeaders[\"Content-Type\"].has(\"application/json\");",
									"}",
									"",
									"var jsonData = JSON.parse(responseBody);",
									"tests[\"History exists\"] = jsonData.length>0;"
								]
							}
						}
					],
					"request": {
						"url": "{{url}}profile/{{loginId}}/donor/donations/{{lang_en}}",
						"method": "GET",
						"header": [],
						"body": {},
						"description": ""
					},
					"response": []
				},
				{
					"name": "get donor's children",
					"event": [
						{
							"listen": "test",
							"script": {
								"type": "text/javascript",
								"exec": [
									"tests[\"Status code is 200\"] = responseCode.code === 200;",
									"var contentTypeHeaderExists = responseHeaders.hasOwnProperty(\"Content-Type\");",
									" ",
									"tests[\"Has Content-Type\"] = contentTypeHeaderExists;",
									" ",
									"if (contentTypeHeaderExists) {",
									"    tests[\"Content-Type is application/json\"] = ",
									"      responseHeaders[\"Content-Type\"].has(\"application/json\");",
									"}",
									"",
									"var jsonData = JSON.parse(responseBody);",
									"tests[\"Donor children loaded\"] = jsonData.message===null;",
									"tests[\"sponsored children exists\"] = jsonData.sponsoredChildrenDisplay.length>0",
									"tests[\"past sponsored children exists\"] = jsonData.pastSponsoredChildrenDisplay.length>0",
									"tests[\"future sponsored children exists\"] = jsonData.futureSponsoredChildrenDisplay.length>0"
								]
							}
						}
					],
					"request": {
						"url": "{{url}}/profile/{{loginId}}/donor/children/{{lang_en}}",
						"method": "GET",
						"header": [],
						"body": {},
						"description": ""
					},
					"response": []
				},
				{
					"name": "get donor referred children",
					"event": [
						{
							"listen": "test",
							"script": {
								"type": "text/javascript",
								"exec": [
									"tests[\"Status code is 200\"] = responseCode.code === 200;",
									"var contentTypeHeaderExists = responseHeaders.hasOwnProperty(\"Content-Type\");",
									" ",
									"tests[\"Has Content-Type\"] = contentTypeHeaderExists;",
									" ",
									"if (contentTypeHeaderExists) {",
									"    tests[\"Content-Type is application/json\"] = ",
									"      responseHeaders[\"Content-Type\"].has(\"application/json\");",
									"}",
									"",
									"var jsonData = JSON.parse(responseBody);",
									"tests[\"Referred children exist\"] = jsonData.length;"
								]
							}
						}
					],
					"request": {
						"url": "{{url}}donor/{{donorId}}/referredchildren",
						"method": "GET",
						"header": [],
						"body": {},
						"description": ""
					},
					"response": []
				},
				{
					"name": "get child model",
					"event": [
						{
							"listen": "test",
							"script": {
								"type": "text/javascript",
								"exec": [
									"tests[\"Status code is 200\"] = responseCode.code === 200;",
									"var contentTypeHeaderExists = responseHeaders.hasOwnProperty(\"Content-Type\");",
									" ",
									"tests[\"Has Content-Type\"] = contentTypeHeaderExists;",
									" ",
									"if (contentTypeHeaderExists) {",
									"    tests[\"Content-Type is application/json\"] = ",
									"      responseHeaders[\"Content-Type\"].has(\"application/json\");",
									"}",
									"",
									"var jsonData = JSON.parse(responseBody);",
									"tests[\"Child loaded\"] = jsonData.sdChildId;"
								]
							}
						}
					],
					"request": {
						"url": "{{url}}childDisplayModel/{{sdChildId}}/{{lang_en}}",
						"method": "GET",
						"header": [],
						"body": {},
						"description": ""
					},
					"response": []
				},
				{
					"name": "get donor authorizations",
					"event": [
						{
							"listen": "test",
							"script": {
								"type": "text/javascript",
								"exec": [
									"tests[\"Status code is 200\"] = responseCode.code === 200;",
									"var contentTypeHeaderExists = responseHeaders.hasOwnProperty(\"Content-Type\");",
									" ",
									"tests[\"Has Content-Type\"] = contentTypeHeaderExists;",
									" ",
									"if (contentTypeHeaderExists) {",
									"    tests[\"Content-Type is application/json\"] = ",
									"      responseHeaders[\"Content-Type\"].has(\"application/json\");",
									"}",
									"",
									"var jsonData = JSON.parse(responseBody);",
									"tests[\"Donor Authorizations exist\"] = jsonData.authorizationMethods.length;"
								]
							}
						}
					],
					"request": {
						"url": "{{url}}donor/authorizations?dcssdonorid={{encrypedDonorId}}&languageCode={{lang_en}}",
						"method": "GET",
						"header": [],
						"body": {},
						"description": ""
					},
					"response": []
				},
				{
					"name": "get donor pledges",
					"event": [
						{
							"listen": "test",
							"script": {
								"type": "text/javascript",
								"exec": [
									"tests[\"Status code is 200\"] = responseCode.code === 200;",
									"var contentTypeHeaderExists = responseHeaders.hasOwnProperty(\"Content-Type\");",
									" ",
									"tests[\"Has Content-Type\"] = contentTypeHeaderExists;",
									" ",
									"if (contentTypeHeaderExists) {",
									"    tests[\"Content-Type is application/json\"] = ",
									"      responseHeaders[\"Content-Type\"].has(\"application/json\");",
									"}",
									"",
									"var jsonData = JSON.parse(responseBody);",
									"tests[\"Pledges loaded\"] = jsonData.message===null;",
									"tests[\"Donor pleadges exist\"] = jsonData.paymentMethods.length;"
								]
							}
						}
					],
					"request": {
						"url": "{{url}}profile/{{loginId}}/donor/pledges/{{lang_en}}",
						"method": "GET",
						"header": [],
						"body": {},
						"description": ""
					},
					"response": []
				}
			]
		},
		{
			"name": "Mwv Repository centric",
			"description": "",
			"item": [
				{
					"name": "get emailtemplates",
					"event": [
						{
							"listen": "test",
							"script": {
								"type": "text/javascript",
								"exec": [
									"tests[\"Status code is 200\"] = responseCode.code === 200;",
									"var contentTypeHeaderExists = responseHeaders.hasOwnProperty(\"Content-Type\");",
									" ",
									"tests[\"Has Content-Type\"] = contentTypeHeaderExists;",
									" ",
									"if (contentTypeHeaderExists) {",
									"    tests[\"Content-Type is application/json\"] = ",
									"      responseHeaders[\"Content-Type\"].has(\"application/json\");",
									"}",
									"",
									"var jsonData = JSON.parse(responseBody);",
									"tests[\"Count > 0\"] = jsonData.length>0;",
									"tests[\"Contains webImageFileName\"] = responseBody.has(\"webImageFileName\");"
								]
							}
						}
					],
					"request": {
						"url": "{{url}}emailtemplates",
						"method": "GET",
						"header": [],
						"body": {},
						"description": ""
					},
					"response": []
				},
				{
					"name": "get christiansensitivecountries",
					"event": [
						{
							"listen": "test",
							"script": {
								"type": "text/javascript",
								"exec": [
									"tests[\"Status code is 200\"] = responseCode.code === 200;",
									"var contentTypeHeaderExists = responseHeaders.hasOwnProperty(\"Content-Type\");",
									" ",
									"tests[\"Has Content-Type\"] = contentTypeHeaderExists;",
									" ",
									"if (contentTypeHeaderExists) {",
									"    tests[\"Content-Type is application/json\"] = ",
									"      responseHeaders[\"Content-Type\"].has(\"application/json\");",
									"}",
									"",
									"tests[\"Contains commas\"] = responseBody.has(\",\");",
									"tests[\"Count > 0\"] = responseBody.split(',').length>0;",
									""
								]
							}
						}
					],
					"request": {
						"url": "{{url}}christiansensitivecountries",
						"method": "GET",
						"header": [],
						"body": {},
						"description": ""
					},
					"response": []
				},
				{
					"name": "get donoremail for id",
					"event": [
						{
							"listen": "test",
							"script": {
								"type": "text/javascript",
								"exec": [
									"tests[\"Status code is 200\"] = responseCode.code === 200;",
									"var contentTypeHeaderExists = responseHeaders.hasOwnProperty(\"Content-Type\");",
									" ",
									"tests[\"Has Content-Type\"] = contentTypeHeaderExists;",
									" ",
									"if (contentTypeHeaderExists) {",
									"    tests[\"Content-Type is application/json\"] = ",
									"      responseHeaders[\"Content-Type\"].has(\"application/json\");",
									"}",
									"",
									"tests[\"Contains emailTemplate\"] = responseBody.has(\"emailTemplate\");"
								]
							}
						}
					],
					"request": {
						"url": "{{url}}/donoremail/{{donorEmailId}}",
						"method": "GET",
						"header": [],
						"body": {},
						"description": ""
					},
					"response": []
				},
				{
					"name": "get emailimage for child donor and datetime specified  ",
					"event": [
						{
							"listen": "test",
							"script": {
								"type": "text/javascript",
								"exec": [
									"tests[\"Status code is 200\"] = responseCode.code === 200;",
									"var contentTypeHeaderExists = responseHeaders.hasOwnProperty(\"Content-Type\");",
									" ",
									"tests[\"Has Content-Type\"] = contentTypeHeaderExists;",
									" ",
									"if (contentTypeHeaderExists) {",
									"    tests[\"Content-Type is image/jpeg\"] = ",
									"      responseHeaders[\"Content-Type\"].has(\"image/jpeg\");",
									"}"
								]
							}
						}
					],
					"request": {
						"url": "{{url}}emailimage/{{childId}}/{{donorId}}/{{datetime}}",
						"method": "GET",
						"header": [],
						"body": {},
						"description": ""
					},
					"response": []
				},
				{
					"name": "get childemail for en",
					"event": [
						{
							"listen": "test",
							"script": {
								"type": "text/javascript",
								"exec": [
									"tests[\"Status code is 200\"] = responseCode.code === 200;",
									"var contentTypeHeaderExists = responseHeaders.hasOwnProperty(\"Content-Type\");",
									" ",
									"tests[\"Has Content-Type\"] = contentTypeHeaderExists;",
									" ",
									"if (contentTypeHeaderExists) {",
									"    tests[\"Content-Type is text/html\"] = ",
									"      responseHeaders[\"Content-Type\"].has(\"text/html\");",
									"}",
									"",
									"tests[\"Contains Donor ID:\"] = responseBody.has(\"Donor ID:\");"
								]
							}
						}
					],
					"request": {
						"url": "{{url}}childemail/{{donorEmailId}}/{{lang_en}}",
						"method": "GET",
						"header": [],
						"body": {},
						"description": ""
					},
					"response": []
				}
			]
		},
		{
			"name": "Sharepoint centric",
			"description": "",
			"item": [
				{
					"name": "get community news",
					"event": [
						{
							"listen": "test",
							"script": {
								"type": "text/javascript",
								"exec": [
									"tests[\"Status code is 200\"] = responseCode.code === 200;",
									"var contentTypeHeaderExists = responseHeaders.hasOwnProperty(\"Content-Type\");",
									" ",
									"tests[\"Has Content-Type\"] = contentTypeHeaderExists;",
									" ",
									"if (contentTypeHeaderExists) {",
									"    tests[\"Content-Type is application/json\"] = ",
									"      responseHeaders[\"Content-Type\"].has(\"application/json\");",
									"}",
									"",
									"tests[\"News exist\"] = !responseBody.has(\"No News\");"
								]
							}
						}
					],
					"request": {
						"url": "{{url}}communitynews/{{projectId}}",
						"method": "GET",
						"header": [],
						"body": {},
						"description": ""
					},
					"response": []
				},
				{
					"name": "get community progress En",
					"event": [
						{
							"listen": "test",
							"script": {
								"type": "text/javascript",
								"exec": [
									"tests[\"Status code is 200\"] = responseCode.code === 200;",
									"var contentTypeHeaderExists = responseHeaders.hasOwnProperty(\"Content-Type\");",
									" ",
									"tests[\"Has Content-Type\"] = contentTypeHeaderExists;",
									" ",
									"if (contentTypeHeaderExists) {",
									"    tests[\"Content-Type is application/json\"] = ",
									"      responseHeaders[\"Content-Type\"].has(\"application/json\");",
									"}",
									"",
									"tests[\"News exist\"] = !responseBody.has(\"No Data\");"
								]
							}
						}
					],
					"request": {
						"url": "{{url}}communityprogress/{{projectId}}/{{lang_en}}",
						"method": "GET",
						"header": [],
						"body": {},
						"description": ""
					},
					"response": []
				},
				{
					"name": "get community progress Fr",
					"event": [
						{
							"listen": "test",
							"script": {
								"type": "text/javascript",
								"exec": [
									"tests[\"Status code is 200\"] = responseCode.code === 200;",
									"var contentTypeHeaderExists = responseHeaders.hasOwnProperty(\"Content-Type\");",
									" ",
									"tests[\"Has Content-Type\"] = contentTypeHeaderExists;",
									" ",
									"if (contentTypeHeaderExists) {",
									"    tests[\"Content-Type is application/json\"] = ",
									"      responseHeaders[\"Content-Type\"].has(\"application/json\");",
									"}",
									"",
									"tests[\"News exist\"] = !responseBody.has(\"No Data\");"
								]
							}
						}
					],
					"request": {
						"url": "{{url}}communityprogress/{{projectId}}/{{lang_fr}}",
						"method": "GET",
						"header": [],
						"body": {},
						"description": ""
					},
					"response": []
				},
				{
					"name": "get community url En",
					"event": [
						{
							"listen": "test",
							"script": {
								"type": "text/javascript",
								"exec": [
									"tests[\"Status code is 200\"] = responseCode.code === 200;",
									"var contentTypeHeaderExists = responseHeaders.hasOwnProperty(\"Content-Type\");",
									" ",
									"tests[\"Has Content-Type\"] = contentTypeHeaderExists;",
									" ",
									"if (contentTypeHeaderExists) {",
									"    tests[\"Content-Type is application/json\"] = ",
									"      responseHeaders[\"Content-Type\"].has(\"application/json\");",
									"}",
									"",
									"tests[\"News exist\"] = !responseBody.has(\"No Data\");"
								]
							}
						}
					],
					"request": {
						"url": "{{url}}communityurl/{{projectId}}/{{lang_en}}",
						"method": "GET",
						"header": [],
						"body": {},
						"description": ""
					},
					"response": []
				},
				{
					"name": "get community url Fr",
					"event": [
						{
							"listen": "test",
							"script": {
								"type": "text/javascript",
								"exec": [
									"tests[\"Status code is 200\"] = responseCode.code === 200;",
									"var contentTypeHeaderExists = responseHeaders.hasOwnProperty(\"Content-Type\");",
									" ",
									"tests[\"Has Content-Type\"] = contentTypeHeaderExists;",
									" ",
									"if (contentTypeHeaderExists) {",
									"    tests[\"Content-Type is application/json\"] = ",
									"      responseHeaders[\"Content-Type\"].has(\"application/json\");",
									"}",
									"",
									"tests[\"News exist\"] = !responseBody.has(\"No Data\");"
								]
							}
						}
					],
					"request": {
						"url": "{{url}}communityurl/{{projectId}}/{{lang_fr}}",
						"method": "GET",
						"header": [],
						"body": {},
						"description": ""
					},
					"response": []
				}
			]
		}
	]
}