{
	"variables": [],
	"info": {
		"name": "Loyalty",
		"_postman_id": "3a6ef11f-e0af-f001-4fb6-8a1a04996a39",
		"description": "",
		"schema": "https://schema.getpostman.com/json/collection/v2.0.0/collection.json"
	},
	"item": [
		{
			"name": "{{url}}clients/token/",
			"event": [
				{
					"listen": "test",
					"script": {
						"type": "text/javascript",
						"exec": [
							"tests[\"Status code is 200\"] = responseCode.code === 200;",
							"var contentTypeHeaderExists = responseHeaders.hasOwnProperty(\"Content-Type\");",
							" ",
							"tests[\"Has Content-Type\"] = contentTypeHeaderExists;",
							" ",
							"if (contentTypeHeaderExists) {",
							"    tests[\"Content-Type is application/json\"] = ",
							"      responseHeaders[\"Content-Type\"].has(\"application/json\");",
							"}",
							"",
							"var jsonData = JSON.parse(responseBody);",
							"postman.setEnvironmentVariable(\"Loyaltytoken\", jsonData.token);"
						]
					}
				}
			],
			"request": {
				"url": "{{url}}clients/token/{{username}}/{{password}}",
				"method": "GET",
				"header": [],
				"body": {
					"mode": "raw",
					"raw": "<SponsorshipActivity xmlns:i=\"http://www.w3.org/2001/XMLSchema-instance\" xmlns=\"http://schemas.datacontract.org/2004/07/Loyalty.Common.Models\">\r\n  <ChildName>test child</ChildName>\r\n  <ChildNumber>2324</ChildNumber>\r\n  <DonorId>80036171</DonorId>\r\n  <ProjectId>2244244</ProjectId>\r\n  <SponsorId>332434</SponsorId>\r\n  <SponsorName>test sp</SponsorName>\r\n</SponsorshipActivity>"
				},
				"description": "this request is generating a token for the calls"
			},
			"response": []
		},
		{
			"name": "{{url}}sa/userpoints?token={{Loyaltytoken}}&donorId={{donorId}}",
			"event": [
				{
					"listen": "test",
					"script": {
						"type": "text/javascript",
						"exec": [
							"tests[\"Status code is 200\"] = responseCode.code === 200;",
							"var contentTypeHeaderExists = responseHeaders.hasOwnProperty(\"Content-Type\");",
							" ",
							"tests[\"Has Content-Type\"] = contentTypeHeaderExists;",
							" ",
							"if (contentTypeHeaderExists) {",
							"    tests[\"Content-Type is application/json\"] = ",
							"      responseHeaders[\"Content-Type\"].has(\"application/json\");",
							"}",
							"if(responseCode.code === 200){",
							"    var jsonData = JSON.parse(responseBody);",
							"    tests[\"Available points are there\"] = jsonData.available_points >= 0;",
							"}"
						]
					}
				}
			],
			"request": {
				"url": "{{url}}sa/userpoints?token={{Loyaltytoken}}&donorId={{donorId}}",
				"method": "GET",
				"header": [],
				"body": {
					"mode": "raw",
					"raw": ""
				},
				"description": "Getting Donor loyalty points"
			},
			"response": []
		},
		{
			"name": "{{url}}sa/getpersonalurl?token={{Loyaltytoken}}&rippleId={{rippleId}}",
			"event": [
				{
					"listen": "test",
					"script": {
						"type": "text/javascript",
						"exec": [
							"tests[\"Status code is 200\"] = responseCode.code === 200;",
							"var contentTypeHeaderExists = responseHeaders.hasOwnProperty(\"Content-Type\");",
							" ",
							"tests[\"Has Content-Type\"] = contentTypeHeaderExists;",
							" ",
							"if (contentTypeHeaderExists) {",
							"    tests[\"Content-Type is application/json\"] = ",
							"      responseHeaders[\"Content-Type\"].has(\"application/json\");",
							"}",
							"if(responseCode.code === 200){",
							"    tests[\"Google shortened url\"] = (responseBody.has(\"http://goo.gl\") || responseBody.has(\"https://goo.gl\"));",
							"}"
						]
					}
				}
			],
			"request": {
				"url": "{{url}}sa/getpersonalurl?token={{Loyaltytoken}}&rippleId={{rippleId}}",
				"method": "GET",
				"header": [],
				"body": {
					"mode": "raw",
					"raw": ""
				},
				"description": "Get Loyalty Personal Url"
			},
			"response": []
		},
		{
			"name": "{{url}}sponsorshipactivity?token={{Loyaltytoken}}",
			"event": [
				{
					"listen": "test",
					"script": {
						"type": "text/javascript",
						"exec": [
							"tests[\"Successful POST request\"] = responseCode.code === 200 || responseCode.code === 201 || responseCode.code === 202;",
							"",
							"var contentTypeHeaderExists = responseHeaders.hasOwnProperty(\"Content-Type\");",
							" ",
							"tests[\"Has Content-Type\"] = contentTypeHeaderExists;",
							"",
							"if(responseCode.code === 200 || responseCode.code === 201 || responseCode.code === 202){",
							"   var jsonObject = xml2Json(responseBody);",
							"    tests[\"Added points for sponsorship\"] = jsonObject.ReturnObject.IsSuccess;",
							"}",
							"",
							""
						]
					}
				}
			],
			"request": {
				"url": "{{url}}sponsorshipactivity?token={{Loyaltytoken}}",
				"method": "POST",
				"header": [
					{
						"key": "Accept",
						"value": "application/xml",
						"description": ""
					},
					{
						"key": "Content-Type",
						"value": "application/xml",
						"description": ""
					}
				],
				"body": {
					"mode": "raw",
					"raw": "<SponsorshipActivity xmlns:i=\"http://www.w3.org/2001/XMLSchema-instance\" xmlns=\"http://schemas.datacontract.org/2004/07/Loyalty.Common.Models\">\r\n  <ChildName>Ann child</ChildName>\r\n  <ChildNumber>1234</ChildNumber>\r\n  <DonorId>{{donorId}}</DonorId>\r\n  <ProjectId>1254875</ProjectId>\r\n  <SponsorId>3253535</SponsorId>\r\n  <SponsorName>dezzy</SponsorName>\r\n</SponsorshipActivity>"
				},
				"description": ""
			},
			"response": []
		}
	]
}