{
  "id": "b28f8354-60a3-9419-32ce-ce6285b57a96",
  "name": "Loyalty_Prd",
  "values": [
    {
      "key": "url",
      "value": "https://svc.worldvision.ca/LoyaltyService/api/",
      "type": "text",
      "enabled": true,
      "warning": ""
    },
    {
      "key": "donorId",
      "value": "41089541",
      "type": "text",
      "enabled": true,
      "warning": ""
    },
    {
      "key": "rippleId",
      "value": "141089541",
      "type": "text",
      "enabled": true,
      "warning": ""
    },
    {
      "key": "Loyaltytoken",
      "type": "text",
      "value": "VEpRY2g2aFN5OHBZQ0VhNTFPazYrNjJkSHJaZUpZaFI3TFI0cyt6aU1vZz06ZGNzcy5jbGllbnQ6NjM2MTc4NjM0Nzg3MTc1NjUy",
      "enabled": true,
      "warning": ""
    },
    {
      "key": "username",
      "value": "dcss.client",
      "type": "text",
      "enabled": true,
      "warning": ""
    },
    {
      "key": "password",
      "value": "dcsspassword",
      "type": "text",
      "enabled": true,
      "warning": ""
    }
  ],
  "timestamp": 1482266678815,
  "_postman_variable_scope": "environment",
  "_postman_exported_at": "2017-01-17T16:18:02.181Z",
  "_postman_exported_using": "Postman/4.9.2"
}